…
```
## # A tibble: 234 x 11
##    manufacturer model    displ  year   cyl trans   drv     cty   hwy fl    class
##    <chr>        <chr>    <dbl> <dbl> <dbl> <chr>   <chr> <dbl> <dbl> <chr> <chr>
##  1 audi         a4         1.8  1999     4 auto(l… f        18    29 p     comp…
##  2 audi         a4         1.8  1999     4 manual… f        21    29 p     comp…
##  3 audi         a4         2    2008     4 manual… f        20    31 p     comp…
##  4 audi         a4         2    2008     4 auto(a… f        21    30 p     comp…
##  5 audi         a4         2.8  1999     6 auto(l… f        16    26 p     comp…
##  6 audi         a4         2.8  1999     6 manual… f        18    26 p     comp…
##  7 audi         a4         3.1  2008     6 auto(a… f        18    27 p     comp…
##  8 audi         a4 quat…   1.8  1999     4 manual… 4        18    26 p     comp…
##  9 audi         a4 quat…   1.8  1999     4 auto(l… 4        16    25 p     comp…
## 10 audi         a4 quat…   2    2008     4 manual… 4        20    28 p     comp…
## # … with 224 more rows
```
…
***

#### Now, let's look at the object we just loaded

* Does the object have the expected number of lines?
* What type of object is it?


```r
mpg
```

```
## # A tibble: 234 x 11
##    manufacturer model    displ  year   cyl trans   drv     cty   hwy fl    class
##    <chr>        <chr>    <dbl> <dbl> <dbl> <chr>   <chr> <dbl> <dbl> <chr> <chr>
##  1 audi         a4         1.8  1999     4 auto(l… f        18    29 p     comp…
##  2 audi         a4         1.8  1999     4 manual… f        21    29 p     comp…
##  3 audi         a4         2    2008     4 manual… f        20    31 p     comp…
##  4 audi         a4         2    2008     4 auto(a… f        21    30 p     comp…
##  5 audi         a4         2.8  1999     6 auto(l… f        16    26 p     comp…
##  6 audi         a4         2.8  1999     6 manual… f        18    26 p     comp…
##  7 audi         a4         3.1  2008     6 auto(a… f        18    27 p     comp…
##  8 audi         a4 quat…   1.8  1999     4 manual… 4        18    26 p     comp…
##  9 audi         a4 quat…   1.8  1999     4 auto(l… 4        16    25 p     comp…
## 10 audi         a4 quat…   2    2008     4 manual… 4        20    28 p     comp…
## # … with 224 more rows
```
…
```r
as_tibble(iris)
```

```
## # A tibble: 150 x 5
##    Sepal.Length Sepal.Width Petal.Length Petal.Width Species
##           <dbl>       <dbl>        <dbl>       <dbl> <fct>  
##  1          5.1         3.5          1.4         0.2 setosa
##  2          4.9         3            1.4         0.2 setosa
##  3          4.7         3.2          1.3         0.2 setosa
##  4          4.6         3.1          1.5         0.2 setosa
##  5          5           3.6          1.4         0.2 setosa
##  6          5.4         3.9          1.7         0.4 setosa
##  7          4.6         3.4          1.4         0.3 setosa
##  8          5           3.4          1.5         0.2 setosa
##  9          4.4         2.9          1.4         0.2 setosa
## 10          4.9         3.1          1.5         0.1 setosa
## # … with 140 more rows
```
…
To demonstrate some of them we will use the starwars dataset included in the dplyr package.


```r
library(dplyr)
starwars
```

```
## # A tibble: 87 x 14
##    name  height  mass hair_color skin_color eye_color birth_year sex   gender
##    <chr>  <int> <dbl> <chr>      <chr>      <chr>          <dbl> <chr> <chr>
##  1 Luke…    172    77 blond      fair       blue            19   male  mascu…
##  2 C-3PO    167    75 <NA>       gold       yellow         112   none  mascu…
##  3 R2-D2     96    32 <NA>       white, bl… red             33   none  mascu…
##  4 Dart…    202   136 none       white      yellow          41.9 male  mascu…
##  5 Leia…    150    49 brown      light      brown           19   fema… femin…
##  6 Owen…    178   120 brown, gr… light      blue            52   male  mascu…
##  7 Beru…    165    75 brown      light      blue            47   fema… femin…
##  8 R5-D4     97    32 <NA>       white, red red             NA   none  mascu…
##  9 Bigg…    183    84 black      light      brown           24   male  mascu…
## 10 Obi-…    182    77 auburn, w… fair       blue-gray       57   male  mascu…
## # … with 77 more rows, and 5 more variables: homeworld <chr>, species <chr>,
## #   films <list>, vehicles <list>, starships <list>
```

For example, using mutate, we can calculate the [BMI](https://www.cdc.gov/healthyweight/assessing/bmi/adult_bmi/index.html) of characters in the Star Wars universe.

```r
starwars %>% mutate(BMI = mass / (height/100))
```

```
## # A tibble: 87 x 15
##    name  height  mass hair_color skin_color eye_color birth_year sex   gender
##    <chr>  <int> <dbl> <chr>      <chr>      <chr>          <dbl> <chr> <chr>
##  1 Luke…    172    77 blond      fair       blue            19   male  mascu…
##  2 C-3PO    167    75 <NA>       gold       yellow         112   none  mascu…
##  3 R2-D2     96    32 <NA>       white, bl… red             33   none  mascu…
##  4 Dart…    202   136 none       white      yellow          41.9 male  mascu…
##  5 Leia…    150    49 brown      light      brown           19   fema… femin…
##  6 Owen…    178   120 brown, gr… light      blue            52   male  mascu…
##  7 Beru…    165    75 brown      light      blue            47   fema… femin…
##  8 R5-D4     97    32 <NA>       white, red red             NA   none  mascu…
##  9 Bigg…    183    84 black      light      brown           24   male  mascu…
## 10 Obi-…    182    77 auburn, w… fair       blue-gray       57   male  mascu…
## # … with 77 more rows, and 6 more variables: homeworld <chr>, species <chr>,
## #   films <list>, vehicles <list>, starships <list>, BMI <dbl>
```

As we saw above, select() allows us to limit the output to specified columns based on name or index.

```r
starwars %>% mutate(BMI = mass / (height/100)) %>% select(name, species, BMI)
```

```
## # A tibble: 87 x 3
##    name               species   BMI
##    <chr>              <chr>   <dbl>
##  1 Luke Skywalker     Human    44.8
##  2 C-3PO              Droid    44.9
##  3 R2-D2              Droid    33.3
##  4 Darth Vader        Human    67.3
##  5 Leia Organa        Human    32.7
##  6 Owen Lars          Human    67.4
##  7 Beru Whitesun lars Human    45.5
##  8 R5-D4              Droid    33.0
##  9 Biggs Darklighter  Human    45.9
## 10 Obi-Wan Kenobi     Human    42.3
## # … with 77 more rows
```
Before we calculate any summary statistics, we need to check to see if we have appropriate levels of replication. We can determine the number of samples per species using count().

```r
starwars %>% count(species, sort = TRUE, name = "Samples")
```

```
## # A tibble: 38 x 2
##    species  Samples
##    <chr>      <int>
##  1 Human         35
##  2 Droid          6
##  3 <NA>           4
##  4 Gungan         3
##  5 Kaminoan       2
##  6 Mirialan       2
##  7 Twi'lek        2
##  8 Wookiee        2
##  9 Zabrak         2
## 10 Aleena         1
## # … with 28 more rows
```

Species information is missing for a number of samples, so we can remove these with drop_na(), and also remove any samples for which mass or height is NA (since that will interfere with our BMI calculation).

```r
starwars %>% drop_na(species, mass, height) %>% count(species, sort=T, name = "Samples")
```

```
## # A tibble: 31 x 2
##    species  Samples
##    <chr>      <int>
##  1 Human         22
##  2 Droid          4
##  3 Gungan         2
##  4 Mirialan       2
##  5 Wookiee        2
##  6 Aleena         1
##  7 Besalisk       1
##  8 Cerean         1
##  9 Clawdite       1
## 10 Dug            1
## # … with 21 more rows
```
…
***

So far, we've used all of the functions listed except arrange. What does arrange do? According to the documentation, arrange "changes the ordering of the rows." This might be useful if we wanted to find the tallest inhabitant of each of the planets sampled in starwars.

```r
starwars %>%
  arrange(homeworld, desc(height)) %>%  # sort by homeworld, then height descending
  group_by(homeworld) %>%  # use group_by to tell slice() how to select records
  slice(1)  # keep only the first observation per homeworld
```

```
## # A tibble: 49 x 14
## # Groups:   homeworld [49]
##    name  height  mass hair_color skin_color eye_color birth_year sex   gender
##    <chr>  <int> <dbl> <chr>      <chr>      <chr>          <dbl> <chr> <chr>
##  1 Bail…    191    NA black      tan        brown             67 male  mascu…
##  2 Ratt…     79    15 none       grey, blue unknown           NA male  mascu…
##  3 Lobot    175    79 none       light      blue              37 male  mascu…
##  4 Jek …    180   110 brown      fair       blue              NA male  mascu…
##  5 Nute…    191    90 none       mottled g… red               NA male  mascu…
##  6 Ki-A…    198    82 white      pale       yellow            92 male  mascu…
##  7 Mas …    196    NA none       blue       blue              NA male  mascu…
##  8 Mon …    150    NA auburn     fair       blue              48 fema… femin…
##  9 Jang…    183    79 black      tan        brown             66 male  mascu…
## 10 Han …    180    80 brown      fair       brown             29 male  mascu…
## # … with 39 more rows, and 5 more variables: homeworld <chr>, species <chr>,
## #   films <list>, vehicles <list>, starships <list>
```
…
#### Challenge

Use the data transformation functions to investigate flights into and out of NYC. This data can be found in the flights dataset from the nycflights13 package. First install the package and take a look at the data.


```r
if (!any(rownames(installed.packages()) == "nycflights13")){
  install.packages("nycflights13")
}
library(nycflights13)
flights
```

```
## # A tibble: 336,776 x 19
##     year month   day dep_time sched_dep_time dep_delay arr_time sched_arr_time
##    <int> <int> <int>    <int>          <int>     <dbl>    <int>          <int>
##  1  2013     1     1      517            515         2      830            819
##  2  2013     1     1      533            529         4      850            830
##  3  2013     1     1      542            540         2      923            850
##  4  2013     1     1      544            545        -1     1004           1022
##  5  2013     1     1      554            600        -6      812            837
##  6  2013     1     1      554            558        -4      740            728
##  7  2013     1     1      555            600        -5      913            854
##  8  2013     1     1      557            600        -3      709            723
##  9  2013     1     1      557            600        -3      838            846
## 10  2013     1     1      558            600        -2      753            745
## # … with 336,766 more rows, and 11 more variables: arr_delay <dbl>,
## #   carrier <chr>, flight <int>, tailnum <chr>, origin <chr>, dest <chr>,
## #   air_time <dbl>, distance <dbl>, hour <dbl>, minute <dbl>, time_hour <dttm>
```
…
